{
  "description": "A tool to start applications and move them to pre-configured spaces on different screens/workspaces.",
  "name": "AAAStartup",
  "shell-version": [
    "3.38"
  ],
  "uuid": "aaastartup@binarywood.net",
  "url": "https://binarywood.net",
  "version": 1
}
